{
    "azureCliLocation": "C:\\Program Files (x86)\\Microsoft SDKs\\Azure\\CLI2\\wbin\\az.cmd",
    "iotHubName": "hel-iota5fe8",
    "subscription": "0f791273-5532-47ca-a26a-66b280f0bcef",
    "resourceGroup": "hel-iot",
    "deviceConnectionString": "HostName=hel-iota5fe8.azure-devices.net;DeviceId=AZ3166;SharedAccessKey=UYx6AZ7E1/CS5Ac+h3VeM/Llp/C5IeG5+9NSz2wIF98=",
    "deviceId": "AZ3166"
}